{
  "data": [
    {
      "id": 1,
      "title": "The Shawshank Redemption",
      "poster": "http://moviesapi.ir/images/tt0111161_poster.jpg",
      "genres": [
        "Crime",
        "Drama"
      ],
      "images": [
        "http://moviesapi.ir/images/tt0111161_screenshot1.jpg",
        "http://moviesapi.ir/images/tt0111161_screenshot2.jpg",
        "http://moviesapi.ir/images/tt0111161_screenshot3.jpg"
      ]
    }
  ],
  "metadata": {
    "current_page": 1,
    "per_page": 2,
    "page_count": 25,
    "total_count": 250
  }
}